Running data — running • tidyfundata
…
Liew, X. B, Morris, S., Netto, K. (2016).
“The effects of load carriage on joint work at different running velocities.”
Journal of Biomechanics, 49(14), 3275-3280.

Fukuchi, K R, Fukuchi, A C, Duarte, Marcos (2017).
“A public dataset of running biomechanics and the effects of running speed on lower extremity kinematics and kinetics.”
PeerJ, 5, e3298.

    Examples

running
#> # A tibble: 610 × 49
#>    id                  cond  side   step   age    ht    wt sex   study split_set
#>    <chr>               <fct> <fct> <dbl> <dbl> <dbl> <dbl> <fct> <fct> <fct>    
#>  1 bernard_study1_sub… fast… left   5.5     33  1.90  83.9 m     bern… train    
#>  2 bernard_study1_sub… fast… left   5.5     30  1.60  53.7 f     bern… train    
#>  3 bernard_study1_sub… fast… left   5.5     28  1.67  69.0 m     bern… test     
#>  4 bernard_study1_sub… fast… left   5.56    29  1.62  47.6 f     bern… train    
#>  5 bernard_study1_sub… fast… left   4.43    35  1.68  60.8 f     bern… train    
#>  6 bernard_study1_sub… fast… right  4       26  1.83  85.9 m     bern… train    
#>  7 bernard_study1_sub… fast… left   5.5     25  1.63  55.4 f     bern… train    
#>  8 bernard_study1_sub… fast… left   5.5     30  1.69  61.1 f     bern… train    
#>  9 bernard_study1_sub… fast… left   5.56    35  1.78  76.9 m     bern… train    
#> 10 bernard_study1_sub… fast… right  4.5     34  1.66  65.5 m     bern… test     
#> # ℹ 600 more rows
#> # ℹ 39 more variables: ankle_accl_ap <tfd_reg>, ankle_accl_ml <tfd_reg>,
#> #   ankle_accl_vt <tfd_reg>, ankle_angle_ap <tfd_reg>,
#> #   ankle_angle_ml <tfd_reg>, ankle_angle_vt <tfd_reg>,
#> #   ankle_moment_ap <tfd_reg>, ankle_moment_ml <tfd_reg>,
#> #   ankle_moment_vt <tfd_reg>, ankle_vel_ap <tfd_reg>, ankle_vel_ml <tfd_reg>,
#> #   ankle_vel_vt <tfd_reg>, com_grf_ap <tfd_reg>, com_grf_ml <tfd_reg>, …
…
